{
  "accessors": [
    {
      "bufferView": 2,
      "componentType": 5126,
      "count": 1848,
      "max": [
        35.633308410644531,
        36.051345825195312,
        20.810874938964844
      ],
      "min": [
        -35.633308410644531,
        -36.051338195800781,
        -20.810874938964844
      ],
      "type": "VEC3"
    },
    {
      "bufferView": 2,
      "byteOffset": 22176,
      "componentType": 5126,
      "count": 1848,
      "max": [
        1,
        0.99682873487472534,
        0.95963490009307861
      ],
      "min": [
        -1,
        -0.98458826541900635,
        -0.97161692380905151
      ],
      "type": "VEC3"
    },
    {
      "bufferView": 3,
      "componentType": 5126,
      "count": 1848,
      "max": [
        1,
        0.88716185092926025,
        0.99571830034255981,
        1
      ],
      "min": [
        -1,
        -0.88406187295913696,
        -0.98712813854217529,
        -1
      ],
      "type": "VEC4"
    },
    {
      "bufferView": 1,
      "componentType": 5126,
      "count": 1848,
      "max": [
        0.6660962700843811,
        0.63594150543212891
      ],
      "min": [
        0.047247536480426788,
        0.039909057319164276
      ],
      "type": "VEC2"
    },
    {
      "bufferView": 0,
      "componentType": 5125,
      "count": 2688,
      "max": [
        1847
      ],
      "min": [
        0
      ],
      "type": "SCALAR"
    },
    {
      "bufferView": 2,
      "byteOffset": 44352,
      "componentType": 5126,
      "count": 654,
      "max": [
        -3.4061126708984375,
        186.2001953125,
        -56.236160278320312
      ],
      "min": [
        -21.782417297363281,
        137.0885009765625,
        -129.71685791015625
      ],
      "type": "VEC3"
    },
    {
      "bufferView": 2,
      "byteOffset": 52200,
      "componentType": 5126,
      "count": 654,
      "max": [
        1,
        1,
        1
      ],
      "min": [
        -1,
        -1,
        -1
      ],
      "type": "VEC3"
    },
    {
      "bufferView": 3,
      "byteOffset": 29568,
      "componentType": 5126,
      "count": 654,
      "max": [
        0.99988090991973877,
        0.92536187171936035,
        0.99999541044235229,
        1
      ],
      "min": [
        -0.99988120794296265,
        -0.99110829830169678,
        -1,
        -1
      ],
      "type": "VEC4"
    },
    {
      "bufferView": 1,
      "byteOffset": 14784,
      "componentType": 5126,
      "count": 654,
      "max": [
        0.12188884615898132,
        0.96187984943389893
      ],
      "min": [
        0.016242440789937973,
        0.038631916046142578
      ],
      "type": "VEC2"
    },
    {
      "bufferView": 0,
      "byteOffset": 10752,
      "componentType": 5125,
      "count": 2556,
      "max": [
        653
      ],
      "min": [
        0
      ],
      "type": "SCALAR"
    },
    {
      "bufferView": 2,
      "byteOffset": 60048,
      "componentType": 5126,
      "count": 3264,
      "max": [
        138.57456970214844,
        91.19287109375,
        -27.094690322875977
      ],
      "min": [
        -16.283710479736328,
        -291.88870239257812,
        -162.56744384765625
      ],
      "type": "VEC3"
    },
    {
      "bufferView": 2,
      "byteOffset": 99216,
      "componentType": 5126,
      "count": 3264,
      "max": [
        1,
        1,
        1
      ],
      "min": [
        -1,
        -0.99754917621612549,
        -1
      ],
      "type": "VEC3"
    },
    {
      "bufferView": 3,
      "byteOffset": 40032,
      "componentType": 5126,
      "count": 3264,
      "max": [
        1,
        1,
        0.99990671873092651,
        1
      ],
      "min": [
        -1,
        -1,
        -0.99999964237213135,
        -1
      ],
      "type": "VEC4"
    },
    {
      "bufferView": 1,
      "byteOffset": 20016,
      "componentType": 5126,
      "count": 3264,
      "max": [
        0.99557685852050781,
        0.9915885329246521
      ],
      "min": [
        0.020982624962925911,
        0.010585208423435688
      ],
      "type": "VEC2"
    },
    {
      "bufferView": 0,
      "byteOffset": 20976,
      "componentType": 5125,
      "count": 12204,
      "max": [
        3263
      ],
      "min": [
        0
      ],
      "type": "SCALAR"
    },
    {
      "bufferView": 2,
      "byteOffset": 138384,
      "componentType": 5126,
      "count": 2590,
      "max": [
        54.664337158203125,
        115.9525146484375,
        28.793922424316406
      ],
      "min": [
        25.528121948242188,
        -85.03875732421875,
        -41.45269775390625
      ],
      "type": "VEC3"
    },
    {
      "bufferView": 2,
      "byteOffset": 169464,
      "componentType": 5126,
      "count": 2590,
      "max": [
        0.99526411294937134,
        0.99851137399673462,
        0.99851101636886597
      ],
      "min": [
        -0.99927550554275513,
        -0.99850970506668091,
        -0.99851125478744507
      ],
      "type": "VEC3"
    },
    {
      "bufferView": 3,
      "byteOffset": 92256,
      "componentType": 5126,
      "count": 2590,
      "max": [
        0.9639008641242981,
        0.9999014139175415,
        0.99970299005508423,
        1
      ],
      "min": [
        -0.98472684621810913,
        -0.99988800287246704,
        -0.99964851140975952,
        1
      ],
      "type": "VEC4"
    },
    {
      "bufferView": 1,
      "byteOffset": 46128,
      "componentType": 5126,
      "count": 2590,
      "max": [
        0.99377399682998657,
        0.98786091804504395
      ],
      "min": [
        0.010584399104118347,
        0.054896224290132523
      ],
      "type": "VEC2"
    },
    {
      "bufferView": 0,
      "byteOffset": 69792,
      "componentType": 5125,
      "count": 10224,
      "max": [
        2589
      ],
      "min": [
        0
      ],
      "type": "SCALAR"
    },
    {
      "bufferView": 2,
      "byteOffset": 200544,
      "componentType": 5126,
      "count": 1776,
      "max": [
        138.56613159179688,
        80.35845947265625,
        102.49058532714844
      ],
      "min": [
        -16.29217529296875,
        -284.86001586914062,
        -27.94024658203125
      ],
      "type": "VEC3"
    },
    {
      "bufferView": 2,
      "byteOffset": 221856,
      "componentType": 5126,
      "count": 1776,
      "max": [
        1,
        1,
        1
      ],
      "min": [
        -1,
        -0.99509203433990479,
        -1
      ],
      "type": "VEC3"
    },
    {
      "bufferView": 3,
      "byteOffset": 133696,
      "componentType": 5126,
      "count": 1776,
      "max": [
        0.9992554783821106,
        0.99999839067459106,
        0.99992668628692627,
        1
      ],
      "min": [
        -0.99941450357437134,
        -0.99992740154266357,
        -0.99766826629638672,
        1
      ],
      "type": "VEC4"
    },
    {
      "bufferView": 1,
      "byteOffset": 66848,
      "componentType": 5126,
      "count": 1776,
      "max": [
        0.85286533832550049,
        0.9957166314125061
      ],
      "min": [
        0.013057643547654152,
        0.011331780813634396
      ],
      "type": "VEC2"
    },
    {
      "bufferView": 0,
      "byteOffset": 110688,
      "componentType": 5125,
      "count": 7704,
      "max": [
        1775
      ],
      "min": [
        0
      ],
      "type": "SCALAR"
    },
    {
      "bufferView": 2,
      "byteOffset": 243168,
      "componentType": 5126,
      "count": 341,
      "max": [
        88.590843200683594,
        20.05950927734375,
        20.099945068359375
      ],
      "min": [
        -88.590843200683594,
        -20.05938720703125,
        -20.099639892578125
      ],
      "type": "VEC3"
    },
    {
      "bufferView": 2,
      "byteOffset": 247260,
      "componentType": 5126,
      "count": 341,
      "max": [
        1,
        0.99512994289398193,
        0.99712908267974854
      ],
      "min": [
        -1,
        -0.99513000249862671,
        -0.99712979793548584
      ],
      "type": "VEC3"
    },
    {
      "bufferView": 3,
      "byteOffset": 162112,
      "componentType": 5126,
      "count": 341,
      "max": [
        0.82147371768951416,
        0.99463140964508057,
        0.99663263559341431,
        1
      ],
      "min": [
        -3.3433185308240354e-05,
        -0.99634253978729248,
        -0.99992555379867554,
        -1
      ],
      "type": "VEC4"
    },
    {
      "bufferView": 1,
      "byteOffset": 81056,
      "componentType": 5126,
      "count": 341,
      "max": [
        0.63169616460800171,
        0.79025858640670776
      ],
      "min": [
        0.015850814059376717,
        0.308900386095047
      ],
      "type": "VEC2"
    },
    {
      "bufferView": 0,
      "byteOffset": 141504,
      "componentType": 5125,
      "count": 1614,
      "max": [
        340
      ],
      "min": [
        0
      ],
      "type": "SCALAR"
    },
    {
      "bufferView": 2,
      "byteOffset": 251352,
      "componentType": 5126,
      "count": 5054,
      "max": [
        54.5374755859375,
        168.0382080078125,
        -29.571380615234375
      ],
      "min": [
        -83.535324096679688,
        -187.21783447265625,
        -48.188629150390625
      ],
      "type": "VEC3"
    },
    {
      "bufferView": 2,
      "byteOffset": 312000,
      "componentType": 5126,
      "count": 5054,
      "max": [
        0.99888598918914795,
        0.99872422218322754,
        1
      ],
      "min": [
        -0.99987894296646118,
        -0.9999774694442749,
        -1
      ],
      "type": "VEC3"
    },
    {
      "bufferView": 3,
      "byteOffset": 167568,
      "componentType": 5126,
      "count": 5054,
      "max": [
        0.99978005886077881,
        0.99968189001083374,
        0.99978655576705933,
        1
      ],
      "min": [
        -0.99977999925613403,
        -0.99968189001083374,
        -0.99939250946044922,
        -1
      ],
      "type": "VEC4"
    },
    {
      "bufferView": 1,
      "byteOffset": 83784,
      "componentType": 5126,
      "count": 5054,
      "max": [
        0.75462454557418823,
        0.99549317359924316
      ],
      "min": [
        0.027835831046104431,
        0.38342404365539551
      ],
      "type": "VEC2"
    },
    {
      "bufferView": 0,
      "byteOffset": 147960,
      "componentType": 5125,
      "count": 25788,
      "max": [
        5053
      ],
      "min": [
        0
      ],
      "type": "SCALAR"
    },
    {
      "bufferView": 2,
      "byteOffset": 372648,
      "componentType": 5126,
      "count": 1016,
      "max": [
        31.057846069335938,
        34.752288818359375,
        34.749462127685547
      ],
      "min": [
        -31.057853698730469,
        -34.752315521240234,
        -34.749771118164062
      ],
      "type": "VEC3"
    },
    {
      "bufferView": 2,
      "byteOffset": 384840,
      "componentType": 5126,
      "count": 1016,
      "max": [
        1,
        0.99965888261795044,
        0.99982386827468872
      ],
      "min": [
        -1,
        -0.99981701374053955,
        -0.99994337558746338
      ],
      "type": "VEC3"
    },
    {
      "bufferView": 3,
      "byteOffset": 248432,
      "componentType": 5126,
      "count": 1016,
      "max": [
        0.64927560091018677,
        0.99982261657714844,
        0.99816042184829712,
        1
      ],
      "min": [
        -0.9999205470085144,
        -0.99967730045318604,
        -0.9882129430770874,
        1
      ],
      "type": "VEC4"
    },
    {
      "bufferView": 1,
      "byteOffset": 124216,
      "componentType": 5126,
      "count": 1016,
      "max": [
        0.9972568154335022,
        0.99516421556472778
      ],
      "min": [
        0.43666753172874451,
        0.5670928955078125
      ],
      "type": "VEC2"
    },
    {
      "bufferView": 0,
      "byteOffset": 251112,
      "componentType": 5125,
      "count": 2070,
      "max": [
        1015
      ],
      "min": [
        0
      ],
      "type": "SCALAR"
    },
    {
      "bufferView": 2,
      "byteOffset": 397032,
      "componentType": 5126,
      "count": 978,
      "max": [
        70.444137573242188,
        131.3033447265625,
        46.981330871582031
      ],
      "min": [
        48.680877685546875,
        -102.37689208984375,
        -59.802474975585938
      ],
      "type": "VEC3"
    },
    {
      "bufferView": 2,
      "byteOffset": 408768,
      "componentType": 5126,
      "count": 978,
      "max": [
        1,
        1,
        1
      ],
      "min": [
        -1,
        -1,
        -1
      ],
      "type": "VEC3"
    },
    {
      "bufferView": 3,
      "byteOffset": 264688,
      "componentType": 5126,
      "count": 978,
      "max": [
        0.99982517957687378,
        1,
        0.99996840953826904,
        1
      ],
      "min": [
        -0.99999701976776123,
        -1,
        -0.99998778104782104,
        1
      ],
      "type": "VEC4"
    },
    {
      "bufferView": 1,
      "byteOffset": 132344,
      "componentType": 5126,
      "count": 978,
      "max": [
        0.90833562612533569,
        0.77483689785003662
      ],
      "min": [
        0.012036517262458801,
        0.31682255864143372
      ],
      "type": "VEC2"
    },
    {
      "bufferView": 0,
      "byteOffset": 259392,
      "componentType": 5125,
      "count": 3456,
      "max": [
        977
      ],
      "min": [
        0
      ],
      "type": "SCALAR"
    },
    {
      "bufferView": 2,
      "byteOffset": 420504,
      "componentType": 5126,
      "count": 3132,
      "max": [
        72.430892944335938,
        126.5299072265625,
        44.918121337890625
      ],
      "min": [
        53.416183471679688,
        -95.704833984375,
        -58.157424926757812
      ],
      "type": "VEC3"
    },
    {
      "bufferView": 2,
      "byteOffset": 458088,
      "componentType": 5126,
      "count": 3132,
      "max": [
        1,
        0.98528671264648438,
        0.98654055595397949
      ],
      "min": [
        -1,
        -0.98599308729171753,
        -0.98654073476791382
      ],
      "type": "VEC3"
    },
    {
      "bufferView": 3,
      "byteOffset": 280336,
      "componentType": 5126,
      "count": 3132,
      "max": [
        0.39994043111801147,
        0.99994981288909912,
        0.9999958872795105,
        1
      ],
      "min": [
        -0.65692257881164551,
        -0.9999498724937439,
        -1,
        -1
      ],
      "type": "VEC4"
    },
    {
      "bufferView": 1,
      "byteOffset": 140168,
      "componentType": 5126,
      "count": 3132,
      "max": [
        0.12188884615898132,
        0.87858957052230835
      ],
      "min": [
        0.016242440789937973,
        0.31648969650268555
      ],
      "type": "VEC2"
    },
    {
      "bufferView": 0,
      "byteOffset": 273216,
      "componentType": 5125,
      "count": 13464,
      "max": [
        3131
      ],
      "min": [
        0
      ],
      "type": "SCALAR"
    },
    {
      "bufferView": 2,
      "byteOffset": 495672,
      "componentType": 5126,
      "count": 4799,
      "max": [
        55.002777099609375,
        164.8399658203125,
        129.71685791015625
      ],
      "min": [
        -80.941207885742188,
        -185.78436279296875,
        -49.067413330078125
      ],
      "type": "VEC3"
    },
    {
      "bufferView": 2,
      "byteOffset": 553260,
      "componentType": 5126,
      "count": 4799,
      "max": [
        1,
        1,
        1
      ],
      "min": [
        -1,
        -1,
        -1
      ],
      "type": "VEC3"
    },
    {
      "bufferView": 3,
      "byteOffset": 330448,
      "componentType": 5126,
      "count": 4799,
      "max": [
        0.9999883770942688,
        0.99942654371261597,
        0.99865227937698364,
        1
      ],
      "min": [
        -0.99920088052749634,
        -0.99974596500396729,
        -0.99847006797790527,
        -1
      ],
      "type": "VEC4"
    },
    {
      "bufferView": 1,
      "byteOffset": 165224,
      "componentType": 5126,
      "count": 4799,
      "max": [
        0.964496910572052,
        0.97123074531555176
      ],
      "min": [
        0.0070976903662085533,
        0.038631916046142578
      ],
      "type": "VEC2"
    },
    {
      "bufferView": 0,
      "byteOffset": 327072,
      "componentType": 5125,
      "count": 23514,
      "max": [
        4798
      ],
      "min": [
        0
      ],
      "type": "SCALAR"
    },
    {
      "bufferView": 2,
      "byteOffset": 610848,
      "componentType": 5126,
      "count": 1011,
      "max": [
        -77.60693359375,
        131.34698486328125,
        45.352249145507812
      ],
      "min": [
        -93.98431396484375,
        -102.18280029296875,
        -59.1298828125
      ],
      "type": "VEC3"
    },
    {
      "bufferView": 2,
      "byteOffset": 622980,
      "componentType": 5126,
      "count": 1011,
      "max": [
        1,
        1,
        1
      ],
      "min": [
        -1,
        -1,
        -1
      ],
      "type": "VEC3"
    },
    {
      "bufferView": 3,
      "byteOffset": 407232,
      "componentType": 5126,
      "count": 1011,
      "max": [
        0.99999696016311646,
        1,
        0.99996846914291382,
        1
      ],
      "min": [
        -0.99999701976776123,
        -1,
        -0.99998766183853149,
        1
      ],
      "type": "VEC4"
    },
    {
      "bufferView": 1,
      "byteOffset": 203616,
      "componentType": 5126,
      "count": 1011,
      "max": [
        0.90833562612533569,
        0.77483689785003662
      ],
      "min": [
        0.012036517262458801,
        0.31682255864143372
      ],
      "type": "VEC2"
    },
    {
      "bufferView": 0,
      "byteOffset": 421128,
      "componentType": 5125,
      "count": 3456,
      "max": [
        1010
      ],
      "min": [
        0
      ],
      "type": "SCALAR"
    },
    {
      "bufferView": 2,
      "byteOffset": 635112,
      "componentType": 5126,
      "count": 3132,
      "max": [
        -79.997116088867188,
        126.71820068359375,
        44.918121337890625
      ],
      "min": [
        -99.21160888671875,
        -96.02850341796875,
        -58.157424926757812
      ],
      "type": "VEC3"
    },
    {
      "bufferView": 2,
      "byteOffset": 672696,
      "componentType": 5126,
      "count": 3132,
      "max": [
        1,
        0.98599201440811157,
        0.98654061555862427
      ],
      "min": [
        -1,
        -0.9852866530418396,
        -0.98654085397720337
      ],
      "type": "VEC3"
    },
    {
      "bufferView": 3,
      "byteOffset": 423408,
      "componentType": 5126,
      "count": 3132,
      "max": [
        0.65692645311355591,
        0.99994981288909912,
        0.9999958872795105,
        1
      ],
      "min": [
        -0.39993888139724731,
        -0.99994981288909912,
        -1,
        -1
      ],
      "type": "VEC4"
    },
    {
      "bufferView": 1,
      "byteOffset": 211704,
      "componentType": 5126,
      "count": 3132,
      "max": [
        0.12188884615898132,
        0.87858957052230835
      ],
      "min": [
        0.016242440789937973,
        0.31648969650268555
      ],
      "type": "VEC2"
    },
    {
      "bufferView": 0,
      "byteOffset": 434952,
      "componentType": 5125,
      "count": 13464,
      "max": [
        3131
      ],
      "min": [
        0
      ],
      "type": "SCALAR"
    },
    {
      "bufferView": 2,
      "byteOffset": 710280,
      "componentType": 5126,
      "count": 2590,
      "max": [
        -51.840488433837891,
        116.27880859375,
        28.483085632324219
      ],
      "min": [
        -77.474578857421875,
        -84.75958251953125,
        -41.1715087890625
      ],
      "type": "VEC3"
    },
    {
      "bufferView": 2,
      "byteOffset": 741360,
      "componentType": 5126,
      "count": 2590,
      "max": [
        0.99919545650482178,
        0.99893420934677124,
        0.99893450736999512
      ],
      "min": [
        -0.99473488330841064,
        -0.99893456697463989,
        -0.99893444776535034
      ],
      "type": "VEC3"
    },
    {
      "bufferView": 3,
      "byteOffset": 473520,
      "componentType": 5126,
      "count": 2590,
      "max": [
        0.98472726345062256,
        0.9998852014541626,
        0.99918508529663086,
        1
      ],
      "min": [
        -0.96390151977539062,
        -0.99989050626754761,
        -0.99960726499557495,
        1
      ],
      "type": "VEC4"
    },
    {
      "bufferView": 1,
      "byteOffset": 236760,
      "componentType": 5126,
      "count": 2590,
      "max": [
        0.99377399682998657,
        0.98786091804504395
      ],
      "min": [
        0.010584399104118347,
        0.054896224290132523
      ],
      "type": "VEC2"
    },
    {
      "bufferView": 0,
      "byteOffset": 488808,
      "componentType": 5125,
      "count": 10224,
      "max": [
        2589
      ],
      "min": [
        0
      ],
      "type": "SCALAR"
    },
    {
      "bufferView": 2,
      "byteOffset": 772440,
      "componentType": 5126,
      "count": 363,
      "max": [
        -82.104736328125,
        -23.9400634765625,
        19.513168334960938
      ],
      "min": [
        -89.426376342773438,
        -75.8809814453125,
        -32.42767333984375
      ],
      "type": "VEC3"
    },
    {
      "bufferView": 2,
      "byteOffset": 776796,
      "componentType": 5126,
      "count": 363,
      "max": [
        0.84334713220596313,
        0.96757370233535767,
        0.96757364273071289
      ],
      "min": [
        -0.94189786911010742,
        -0.96757286787033081,
        -0.96757274866104126
      ],
      "type": "VEC3"
    },
    {
      "bufferView": 3,
      "byteOffset": 514960,
      "componentType": 5126,
      "count": 363,
      "max": [
        0.50544154644012451,
        0.99999761581420898,
        0.99973267316818237,
        1
      ],
      "min": [
        -0.47329631447792053,
        -0.99984645843505859,
        -0.99690955877304077,
        1
      ],
      "type": "VEC4"
    },
    {
      "bufferView": 1,
      "byteOffset": 257480,
      "componentType": 5126,
      "count": 363,
      "max": [
        0.96450597047805786,
        0.068037204444408417
      ],
      "min": [
        0.73141378164291382,
        0.0061870166100561619
      ],
      "type": "VEC2"
    },
    {
      "bufferView": 0,
      "byteOffset": 529704,
      "componentType": 5125,
      "count": 1920,
      "max": [
        362
      ],
      "min": [
        0
      ],
      "type": "SCALAR"
    },
    {
      "bufferView": 2,
      "byteOffset": 781152,
      "componentType": 5126,
      "count": 4930,
      "max": [
        65.314567565917969,
        113.49464416503906,
        113.33650970458984
      ],
      "min": [
        -130.51174926757812,
        -113.49461364746094,
        -113.33644866943359
      ],
      "type": "VEC3"
    },
    {
      "bufferView": 2,
      "byteOffset": 840312,
      "componentType": 5126,
      "count": 4930,
      "max": [
        1,
        0.99999797344207764,
        0.99999886751174927
      ],
      "min": [
        -1,
        -0.99999880790710449,
        -0.99999743700027466
      ],
      "type": "VEC3"
    },
    {
      "bufferView": 3,
      "byteOffset": 520768,
      "componentType": 5126,
      "count": 4930,
      "max": [
        0.93514788150787354,
        1,
        0.99999874830245972,
        1
      ],
      "min": [
        -0.93515282869338989,
        -0.99999827146530151,
        -0.99998718500137329,
        1
      ],
      "type": "VEC4"
    },
    {
      "bufferView": 1,
      "byteOffset": 260384,
      "componentType": 5126,
      "count": 4930,
      "max": [
        0.99620509147644043,
        0.99212068319320679
      ],
      "min": [
        0.022421564906835556,
        0.013963649980723858
      ],
      "type": "VEC2"
    },
    {
      "bufferView": 0,
      "byteOffset": 537384,
      "componentType": 5125,
      "count": 13602,
      "max": [
        4929
      ],
      "min": [
        0
      ],
      "type": "SCALAR"
    },
    {
      "bufferView": 4,
      "componentType": 5126,
      "count": 94,
      "max": [
        9.6666669845581055
      ],
      "min": [
        0
      ],
      "type": "SCALAR"
    },
    {
      "bufferView": 5,
      "componentType": 5126,
      "count": 94,
      "max": [
        7.9382247924804688,
        397.7835693359375,
        -100.95805358886719
      ],
      "min": [
        7.9382247924804688,
        74.803947448730469,
        -100.95805358886719
      ],
      "type": "VEC3"
    },
    {
      "bufferView": 4,
      "byteOffset": 376,
      "componentType": 5126,
      "count": 54,
      "max": [
        8.6666669845581055
      ],
      "min": [
        0
      ],
      "type": "SCALAR"
    },
    {
      "bufferView": 5,
      "byteOffset": 1128,
      "componentType": 5126,
      "count": 54,
      "max": [
        171.95208740234375,
        6.0412063598632812,
        -7.16650390625
      ],
      "min": [
        20.643798828125,
        6.0412063598632812,
        -7.16650390625
      ],
      "type": "VEC3"
    },
    {
      "bufferView": 4,
      "byteOffset": 592,
      "componentType": 5126,
      "count": 72,
      "max": [
        9.6666669845581055
      ],
      "min": [
        0
      ],
      "type": "SCALAR"
    },
    {
      "bufferView": 5,
      "byteOffset": 1776,
      "componentType": 5126,
      "count": 72,
      "max": [
        -53.21490478515625,
        291.34002685546875,
        -98.52197265625
      ],
      "min": [
        -53.21490478515625,
        26.809379577636719,
        -98.52197265625
      ],
      "type": "VEC3"
    },
    {
      "bufferView": 4,
      "byteOffset": 880,
      "componentType": 5126,
      "count": 8,
      "max": [
        10.333333015441895
      ],
      "min": [
        0
      ],
      "type": "SCALAR"
    },
    {
      "bufferView": 5,
      "byteOffset": 2640,
      "componentType": 5126,
      "count": 8,
      "max": [
        1,
        1,
        1
      ],
      "min": [
        1,
        0.99999994039535522,
        0.99999994039535522
      ],
      "type": "VEC3"
    },
    {
      "bufferView": 4,
      "byteOffset": 912,
      "componentType": 5126,
      "count": 311,
      "max": [
        10.333333015441895
      ],
      "min": [
        0
      ],
      "type": "SCALAR"
    },
    {
      "bufferView": 6,
      "componentType": 5126,
      "count": 311,
      "max": [
        0.99999737739562988,
        -0,
        0,
        0.99997639656066895
      ],
      "min": [
        -0.86501872539520264,
        -0,
        0,
        -0.49379375576972961
      ],
      "type": "VEC4"
    },
    {
      "bufferView": 4,
      "byteOffset": 2156,
      "componentType": 5126,
      "count": 14,
      "max": [
        10.333333015441895
      ],
      "min": [
        0
      ],
      "type": "SCALAR"
    },
    {
      "bufferView": 5,
      "byteOffset": 2736,
      "componentType": 5126,
      "count": 14,
      "max": [
        20.643798828125,
        6.0412063598632812,
        -7.16650390625
      ],
      "min": [
        20.643798828125,
        -80.917877197265625,
        -7.1665077209472656
      ],
      "type": "VEC3"
    },
    {
      "bufferView": 4,
      "byteOffset": 2212,
      "componentType": 5126,
      "count": 29,
      "max": [
        10.333333015441895
      ],
      "min": [
        0
      ],
      "type": "SCALAR"
    },
    {
      "bufferView": 5,
      "byteOffset": 2904,
      "componentType": 5126,
      "count": 29,
      "max": [
        1,
        1,
        1
      ],
      "min": [
        1,
        0.99999994039535522,
        0.99999994039535522
      ],
      "type": "VEC3"
    },
    {
      "bufferView": 4,
      "byteOffset": 2328,
      "componentType": 5126,
      "count": 311,
      "max": [
        10.333333015441895
      ],
      "min": [
        0
      ],
      "type": "SCALAR"
    },
    {
      "bufferView": 6,
      "byteOffset": 4976,
      "componentType": 5126,
      "count": 311,
      "max": [
        0.99999994039535522,
        -0,
        0,
        0.99998754262924194
      ],
      "min": [
        -0.86569255590438843,
        -0,
        0,
        -0.49133282899856567
      ],
      "type": "VEC4"
    },
    {
      "bufferView": 4,
      "byteOffset": 3572,
      "componentType": 5126,
      "count": 41,
      "max": [
        9.6666669845581055
      ],
      "min": [
        3
      ],
      "type": "SCALAR"
    },
    {
      "bufferView": 5,
      "byteOffset": 3252,
      "componentType": 5126,
      "count": 41,
      "max": [
        193.19874572753906,
        6.0412063598632812,
        -7.16650390625
      ],
      "min": [
        20.643798828125,
        6.0412063598632812,
        -7.16650390625
      ],
      "type": "VEC3"
    },
    {
      "bufferView": 4,
      "byteOffset": 3736,
      "componentType": 5126,
      "count": 42,
      "max": [
        10
      ],
      "min": [
        2.6666667461395264
      ],
      "type": "SCALAR"
    },
    {
      "bufferView": 5,
      "byteOffset": 3744,
      "componentType": 5126,
      "count": 42,
      "max": [
        215.03370666503906,
        6.0412063598632812,
        -7.16650390625
      ],
      "min": [
        20.643798828125,
        6.0412063598632812,
        -7.16650390625
      ],
      "type": "VEC3"
    },
    {
      "bufferView": 4,
      "byteOffset": 3904,
      "componentType": 5126,
      "count": 81,
      "max": [
        10.133333206176758
      ],
      "min": [
        0
      ],
      "type": "SCALAR"
    },
    {
      "bufferView": 5,
      "byteOffset": 4248,
      "componentType": 5126,
      "count": 81,
      "max": [
        20.643798828125,
        353.53338623046875,
        -7.16650390625
      ],
      "min": [
        20.643798828125,
        6.0412063598632812,
        -7.16650390625
      ],
      "type": "VEC3"
    },
    {
      "bufferView": 4,
      "byteOffset": 4228,
      "componentType": 5126,
      "count": 41,
      "max": [
        9.6666669845581055
      ],
      "min": [
        3
      ],
      "type": "SCALAR"
    },
    {
      "bufferView": 5,
      "byteOffset": 5220,
      "componentType": 5126,
      "count": 41,
      "max": [
        20.643798828125,
        6.0412063598632812,
        -7.16650390625
      ],
      "min": [
        -122.9111328125,
        6.0412063598632812,
        -7.16650390625
      ],
      "type": "VEC3"
    },
    {
      "bufferView": 4,
      "byteOffset": 4392,
      "componentType": 5126,
      "count": 44,
      "max": [
        10.333333015441895
      ],
      "min": [
        0
      ],
      "type": "SCALAR"
    },
    {
      "bufferView": 5,
      "byteOffset": 5712,
      "componentType": 5126,
      "count": 44,
      "max": [
        20.643798828125,
        6.0412063598632812,
        -7.16650390625
      ],
      "min": [
        -154.9354248046875,
        6.0412063598632812,
        -7.16650390625
      ],
      "type": "VEC3"
    },
    {
      "bufferView": 4,
      "byteOffset": 4568,
      "componentType": 5126,
      "count": 51,
      "max": [
        7.9333333969116211
      ],
      "min": [
        3.6666667461395264
      ],
      "type": "SCALAR"
    },
    {
      "bufferView": 5,
      "byteOffset": 6240,
      "componentType": 5126,
      "count": 51,
      "max": [
        20.643798828125,
        6.0412063598632812,
        -7.16650390625
      ],
      "min": [
        -95.97357177734375,
        6.0412063598632812,
        -7.16650390625
      ],
      "type": "VEC3"
    },
    {
      "bufferView": 4,
      "byteOffset": 4772,
      "componentType": 5126,
      "count": 41,
      "max": [
        9
      ],
      "min": [
        3.3333332538604736
      ],
      "type": "SCALAR"
    },
    {
      "bufferView": 5,
      "byteOffset": 6852,
      "componentType": 5126,
      "count": 41,
      "max": [
        20.643798828125,
        6.0412063598632812,
        -7.16650390625
      ],
      "min": [
        -108.6929931640625,
        6.0412063598632812,
        -7.16650390625
      ],
      "type": "VEC3"
    },
    {
      "bufferView": 4,
      "byteOffset": 4936,
      "componentType": 5126,
      "count": 311,
      "max": [
        10.333333015441895
      ],
      "min": [
        0
      ],
      "type": "SCALAR"
    },
    {
      "bufferView": 6,
      "byteOffset": 9952,
      "componentType": 5126,
      "count": 311,
      "max": [
        0.99999988079071045,
        -0,
        0,
        1
      ],
      "min": [
        -0.86575138568878174,
        -0,
        0,
        -0.49205496907234192
      ],
      "type": "VEC4"
    }
  ],
  "animations": [
    {
      "channels": [
        {
          "sampler": 0,
          "target": {
            "node": 5,
            "path": "translation"
          }
        },
        {
          "sampler": 1,
          "target": {
            "node": 11,
            "path": "translation"
          }
        },
        {
          "sampler": 2,
          "target": {
            "node": 13,
            "path": "translation"
          }
        },
        {
          "sampler": 3,
          "target": {
            "node": 15,
            "path": "scale"
          }
        },
        {
          "sampler": 4,
          "target": {
            "node": 15,
            "path": "rotation"
          }
        },
        {
          "sampler": 5,
          "target": {
            "node": 17,
            "path": "translation"
          }
        },
        {
          "sampler": 6,
          "target": {
            "node": 19,
            "path": "scale"
          }
        },
        {
          "sampler": 7,
          "target": {
            "node": 19,
            "path": "rotation"
          }
        },
        {
          "sampler": 8,
          "target": {
            "node": 21,
            "path": "translation"
          }
        },
        {
          "sampler": 9,
          "target": {
            "node": 23,
            "path": "translation"
          }
        },
        {
          "sampler": 10,
          "target": {
            "node": 25,
            "path": "translation"
          }
        },
        {
          "sampler": 11,
          "target": {
            "node": 27,
            "path": "translation"
          }
        },
        {
          "sampler": 12,
          "target": {
            "node": 29,
            "path": "translation"
          }
        },
        {
          "sampler": 13,
          "target": {
            "node": 31,
            "path": "translation"
          }
        },
        {
          "sampler": 14,
          "target": {
            "node": 33,
            "path": "translation"
          }
        },
        {
          "sampler": 15,
          "target": {
            "node": 35,
            "path": "rotation"
          }
        }
      ],
      "name": "Take 001",
      "samplers": [
        {
          "input": 80,
          "interpolation": "LINEAR",
          "output": 81
        },
        {
          "input": 82,
          "interpolation": "LINEAR",
          "output": 83
        },
        {
          "input": 84,
          "interpolation": "LINEAR",
          "output": 85
        },
        {
          "input": 86,
          "interpolation": "LINEAR",
          "output": 87
        },
        {
          "input": 88,
          "interpolation": "LINEAR",
          "output": 89
        },
        {
          "input": 90,
          "interpolation": "LINEAR",
          "output": 91
        },
        {
          "input": 92,
          "interpolation": "LINEAR",
          "output": 93
        },
        {
          "input": 94,
          "interpolation": "LINEAR",
          "output": 95
        },
        {
          "input": 96,
          "interpolation": "LINEAR",
          "output": 97
        },
        {
          "input": 98,
          "interpolation": "LINEAR",
          "output": 99
        },
        {
          "input": 100,
          "interpolation": "LINEAR",
          "output": 101
        },
        {
          "input": 102,
          "interpolation": "LINEAR",
          "output": 103
        },
        {
          "input": 104,
          "interpolation": "LINEAR",
          "output": 105
        },
        {
          "input": 106,
          "interpolation": "LINEAR",
          "output": 107
        },
        {
          "input": 108,
          "interpolation": "LINEAR",
          "output": 109
        },
        {
          "input": 110,
          "interpolation": "LINEAR",
          "output": 111
        }
      ]
    }
  ],
  "asset": {
    "extras": {
      "author": "dzhusione (https://sketchfab.com/dzhusione)",
      "license": "CC-BY-4.0 (http://creativecommons.org/licenses/by/4.0/)",
      "source": "https://sketchfab.com/3d-models/gearbox-animation-7c9a82e633e5460298032b6d195b236c",
      "title": "Gearbox Animation"
    },
    "generator": "Sketchfab-4.79.0",
    "version": "2.0"
  },
  "bufferViews": [
    {
      "buffer": 0,
      "byteLength": 591792,
      "byteOffset": 0,
      "name": "floatBufferViews",
      "target": 34963
    },
    {
      "buffer": 0,
      "byteLength": 299824,
      "byteOffset": 591792,
      "byteStride": 8,
      "name": "floatBufferViews",
      "target": 34962
    },
    {
      "buffer": 0,
      "byteLength": 899472,
      "byteOffset": 891616,
      "byteStride": 12,
      "name": "floatBufferViews",
      "target": 34962
    },
    {
      "buffer": 0,
      "byteLength": 599648,
      "byteOffset": 1791088,
      "byteStride": 16,
      "name": "floatBufferViews",
      "target": 34962
    },
    {
      "buffer": 0,
      "byteLength": 6180,
      "byteOffset": 2390736,
      "name": "floatBufferViews"
    },
    {
      "buffer": 0,
      "byteLength": 7344,
      "byteOffset": 2396916,
      "byteStride": 12,
      "name": "floatBufferViews"
    },
    {
      "buffer": 0,
      "byteLength": 14928,
      "byteOffset": 2404260,
      "byteStride": 16,
      "name": "floatBufferViews"
    }
  ],
  "buffers": [
    {
      "byteLength": 2419188,
      "uri": "scene.bin"
    }
  ],
  "images": [
    {
      "uri": "textures/Material_26_metallicRoughness.png"
    },
    {
      "uri": "textures/Material_26_baseColor.png"
    },
    {
      "uri": "textures/Material_26_normal.png"
    },
    {
      "uri": "textures/Material_27_metallicRoughness.png"
    },
    {
      "uri": "textures/Material_27_baseColor.png"
    },
    {
      "uri": "textures/Material_27_normal.png"
    }
  ],
  "materials": [
    {
      "doubleSided": true,
      "emissiveFactor": [
        0,
        0,
        0
      ],
      "name": "Material_27",
      "normalTexture": {
        "index": 5,
        "scale": 1,
        "texCoord": 0
      },
      "occlusionTexture": {
        "index": 3,
        "strength": 1,
        "texCoord": 0
      },
      "pbrMetallicRoughness": {
        "baseColorFactor": [
          1,
          1,
          1,
          1
        ],
        "baseColorTexture": {
          "index": 4,
          "texCoord": 0
        },
        "metallicFactor": 1,
        "metallicRoughnessTexture": {
          "index": 3,
          "texCoord": 0
        },
        "roughnessFactor": 1
      }
    },
    {
      "doubleSided": true,
      "emissiveFactor": [
        0,
        0,
        0
      ],
      "name": "Material_26",
      "normalTexture": {
        "index": 2,
        "scale": 1,
        "texCoord": 0
      },
      "occlusionTexture": {
        "index": 0,
        "strength": 1,
        "texCoord": 0
      },
      "pbrMetallicRoughness": {
        "baseColorFactor": [
          1,
          1,
          1,
          1
        ],
        "baseColorTexture": {
          "index": 1,
          "texCoord": 0
        },
        "metallicFactor": 1,
        "metallicRoughnessTexture": {
          "index": 0,
          "texCoord": 0
        },
        "roughnessFactor": 1
      }
    }
  ],
  "meshes": [
    {
      "name": "Object029_Material #27_0",
      "primitives": [
        {
          "attributes": {
            "NORMAL": 1,
            "POSITION": 0,
            "TANGENT": 2,
            "TEXCOORD_0": 3
          },
          "indices": 4,
          "material": 0,
          "mode": 4
        }
      ]
    },
    {
      "name": "Object028_Material #26_0",
      "primitives": [
        {
          "attributes": {
            "NORMAL": 6,
            "POSITION": 5,
            "TANGENT": 7,
            "TEXCOORD_0": 8
          },
          "indices": 9,
          "material": 1,
          "mode": 4
        }
      ]
    },
    {
      "name": "Object011_Material #27_0",
      "primitives": [
        {
          "attributes": {
            "NORMAL": 11,
            "POSITION": 10,
            "TANGENT": 12,
            "TEXCOORD_0": 13
          },
          "indices": 14,
          "material": 0,
          "mode": 4
        }
      ]
    },
    {
      "name": "Object018_Material #26_0",
      "primitives": [
        {
          "attributes": {
            "NORMAL": 16,
            "POSITION": 15,
            "TANGENT": 17,
            "TEXCOORD_0": 18
          },
          "indices": 19,
          "material": 1,
          "mode": 4
        }
      ]
    },
    {
      "name": "Object020_Material #27_0",
      "primitives": [
        {
          "attributes": {
            "NORMAL": 21,
            "POSITION": 20,
            "TANGENT": 22,
            "TEXCOORD_0": 23
          },
          "indices": 24,
          "material": 0,
          "mode": 4
        }
      ]
    },
    {
      "name": "walsmall_Material #26_0",
      "primitives": [
        {
          "attributes": {
            "NORMAL": 26,
            "POSITION": 25,
            "TANGENT": 27,
            "TEXCOORD_0": 28
          },
          "indices": 29,
          "material": 1,
          "mode": 4
        }
      ]
    },
    {
      "name": "Object021_Material #26_0",
      "primitives": [
        {
          "attributes": {
            "NORMAL": 31,
            "POSITION": 30,
            "TANGENT": 32,
            "TEXCOORD_0": 33
          },
          "indices": 34,
          "material": 1,
          "mode": 4
        }
      ]
    },
    {
      "name": "starsmall_Material #26_0",
      "primitives": [
        {
          "attributes": {
            "NORMAL": 36,
            "POSITION": 35,
            "TANGENT": 37,
            "TEXCOORD_0": 38
          },
          "indices": 39,
          "material": 1,
          "mode": 4
        }
      ]
    },
    {
      "name": "Object024_Material #26_0",
      "primitives": [
        {
          "attributes": {
            "NORMAL": 41,
            "POSITION": 40,
            "TANGENT": 42,
            "TEXCOORD_0": 43
          },
          "indices": 44,
          "material": 1,
          "mode": 4
        }
      ]
    },
    {
      "name": "Object025_Material #26_0",
      "primitives": [
        {
          "attributes": {
            "NORMAL": 46,
            "POSITION": 45,
            "TANGENT": 47,
            "TEXCOORD_0": 48
          },
          "indices": 49,
          "material": 1,
          "mode": 4
        }
      ]
    },
    {
      "name": "Object019_Material #26_0",
      "primitives": [
        {
          "attributes": {
            "NORMAL": 51,
            "POSITION": 50,
            "TANGENT": 52,
            "TEXCOORD_0": 53
          },
          "indices": 54,
          "material": 1,
          "mode": 4
        }
      ]
    },
    {
      "name": "Object022_Material #26_0",
      "primitives": [
        {
          "attributes": {
            "NORMAL": 56,
            "POSITION": 55,
            "TANGENT": 57,
            "TEXCOORD_0": 58
          },
          "indices": 59,
          "material": 1,
          "mode": 4
        }
      ]
    },
    {
      "name": "Object023_Material #26_0",
      "primitives": [
        {
          "attributes": {
            "NORMAL": 61,
            "POSITION": 60,
            "TANGENT": 62,
            "TEXCOORD_0": 63
          },
          "indices": 64,
          "material": 1,
          "mode": 4
        }
      ]
    },
    {
      "name": "Object026_Material #26_0",
      "primitives": [
        {
          "attributes": {
            "NORMAL": 66,
            "POSITION": 65,
            "TANGENT": 67,
            "TEXCOORD_0": 68
          },
          "indices": 69,
          "material": 1,
          "mode": 4
        }
      ]
    },
    {
      "name": "Object027_Material #26_0",
      "primitives": [
        {
          "attributes": {
            "NORMAL": 71,
            "POSITION": 70,
            "TANGENT": 72,
            "TEXCOORD_0": 73
          },
          "indices": 74,
          "material": 1,
          "mode": 4
        }
      ]
    },
    {
      "name": "starbig_Material #26_0",
      "primitives": [
        {
          "attributes": {
            "NORMAL": 76,
            "POSITION": 75,
            "TANGENT": 77,
            "TEXCOORD_0": 78
          },
          "indices": 79,
          "material": 1,
          "mode": 4
        }
      ]
    }
  ],
  "nodes": [
    {
      "children": [
        1
      ],
      "name": "RootNode (gltf orientation matrix)",
      "rotation": [
        -0.70710678118654746,
        -0,
        -0,
        0.70710678118654757
      ]
    },
    {
      "children": [
        2
      ],
      "name": "RootNode (model correction matrix)"
    },
    {
      "children": [
        3
      ],
      "matrix": [
        1,
        0,
        0,
        0,
        0,
        0,
        1,
        0,
        0,
        -1,
        0,
        0,
        0,
        0,
        0,
        1
      ],
      "name": "0dab8ef7182f4c8ba04d0fe96a9f4cf9.fbx"
    },
    {
      "children": [
        4
      ],
      "name": ""
    },
    {
      "children": [
        5,
        7,
        9,
        11,
        13,
        15,
        17,
        19,
        21,
        23,
        25,
        27,
        29,
        31,
        33,
        35
      ],
      "name": "RootNode"
    },
    {
      "children": [
        6
      ],
      "name": "Object029",
      "rotation": [
        -0.7071068286895752,
        -0,
        0,
        0.7071068286895752
      ],
      "translation": [
        7.9382247924804688,
        74.874092102050781,
        -100.95805358886719
      ]
    },
    {
      "mesh": 0,
      "name": "Object029_Material #27_0"
    },
    {
      "children": [
        8
      ],
      "name": "Object028",
      "rotation": [
        -0.7071068286895752,
        -0,
        0,
        0.7071068286895752
      ],
      "translation": [
        20.643798828125,
        6.0412063598632812,
        -7.16650390625
      ]
    },
    {
      "mesh": 1,
      "name": "Object028_Material #26_0"
    },
    {
      "children": [
        10
      ],
      "name": "Object011",
      "rotation": [
        -0.7071068286895752,
        -0,
        0,
        0.7071068286895752
      ],
      "translation": [
        -53.21490478515625,
        26.809379577636719,
        -98.52197265625
      ]
    },
    {
      "mesh": 2,
      "name": "Object011_Material #27_0"
    },
    {
      "children": [
        12
      ],
      "name": "Object018",
      "rotation": [
        -0.7071068286895752,
        -0,
        0,
        0.7071068286895752
      ],
      "translation": [
        20.643798828125,
        6.0412063598632812,
        -7.16650390625
      ]
    },
    {
      "mesh": 3,
      "name": "Object018_Material #26_0"
    },
    {
      "children": [
        14
      ],
      "name": "Object020",
      "rotation": [
        -0.7071068286895752,
        -0,
        0,
        0.7071068286895752
      ],
      "translation": [
        -53.21490478515625,
        26.809379577636719,
        -98.52197265625
      ]
    },
    {
      "mesh": 4,
      "name": "Object020_Material #27_0"
    },
    {
      "children": [
        16
      ],
      "name": "walsmall",
      "rotation": [
        -0.7071068286895752,
        -0,
        0,
        0.7071068286895752
      ],
      "translation": [
        33.013801574707031,
        -0.3670654296875,
        -98.0067138671875
      ]
    },
    {
      "mesh": 5,
      "name": "walsmall_Material #26_0"
    },
    {
      "children": [
        18
      ],
      "name": "Object021",
      "rotation": [
        -0.7071068286895752,
        -0,
        0,
        0.7071068286895752
      ],
      "translation": [
        20.643798828125,
        6.0412063598632812,
        -7.16650390625
      ]
    },
    {
      "mesh": 6,
      "name": "Object021_Material #26_0"
    },
    {
      "children": [
        20
      ],
      "name": "starsmall",
      "rotation": [
        -0.7071068286895752,
        -0,
        0,
        0.7071068286895752
      ],
      "translation": [
        8.8066864013671875,
        -0.3649749755859375,
        -98.46893310546875
      ]
    },
    {
      "mesh": 7,
      "name": "starsmall_Material #26_0"
    },
    {
      "children": [
        22
      ],
      "name": "Object024",
      "rotation": [
        -0.7071068286895752,
        -0,
        0,
        0.7071068286895752
      ],
      "translation": [
        20.643798828125,
        6.0412063598632812,
        -7.16650390625
      ]
    },
    {
      "mesh": 8,
      "name": "Object024_Material #26_0"
    },
    {
      "children": [
        24
      ],
      "name": "Object025",
      "rotation": [
        -0.7071068286895752,
        -0,
        0,
        0.7071068286895752
      ],
      "translation": [
        20.643798828125,
        6.0412063598632812,
        -7.16650390625
      ]
    },
    {
      "mesh": 9,
      "name": "Object025_Material #26_0"
    },
    {
      "children": [
        26
      ],
      "name": "Object019",
      "rotation": [
        -0.7071068286895752,
        -0,
        0,
        0.7071068286895752
      ],
      "translation": [
        20.643798828125,
        6.0412063598632812,
        -7.16650390625
      ]
    },
    {
      "mesh": 10,
      "name": "Object019_Material #26_0"
    },
    {
      "children": [
        28
      ],
      "name": "Object022",
      "rotation": [
        -0.7071068286895752,
        -0,
        0,
        0.7071068286895752
      ],
      "translation": [
        20.643798828125,
        6.0412063598632812,
        -7.16650390625
      ]
    },
    {
      "mesh": 11,
      "name": "Object022_Material #26_0"
    },
    {
      "children": [
        30
      ],
      "name": "Object023",
      "rotation": [
        -0.7071068286895752,
        -0,
        0,
        0.7071068286895752
      ],
      "translation": [
        20.643798828125,
        6.0412063598632812,
        -7.16650390625
      ]
    },
    {
      "mesh": 12,
      "name": "Object023_Material #26_0"
    },
    {
      "children": [
        32
      ],
      "name": "Object026",
      "rotation": [
        -0.7071068286895752,
        -0,
        0,
        0.7071068286895752
      ],
      "translation": [
        20.643798828125,
        6.0412063598632812,
        -7.16650390625
      ]
    },
    {
      "mesh": 13,
      "name": "Object026_Material #26_0"
    },
    {
      "children": [
        34
      ],
      "name": "Object027",
      "rotation": [
        -0.7071068286895752,
        -0,
        0,
        0.7071068286895752
      ],
      "translation": [
        20.643798828125,
        6.0412063598632812,
        -7.16650390625
      ]
    },
    {
      "mesh": 14,
      "name": "Object027_Material #26_0"
    },
    {
      "children": [
        36
      ],
      "name": "starbig",
      "rotation": [
        -0.7071068286895752,
        -0,
        0,
        0.7071068286895752
      ],
      "translation": [
        8.9071426391601562,
        -0.8430023193359375,
        41.50506591796875
      ]
    },
    {
      "mesh": 15,
      "name": "starbig_Material #26_0"
    }
  ],
  "samplers": [
    {
      "magFilter": 9729,
      "minFilter": 9987,
      "wrapS": 10497,
      "wrapT": 10497
    }
  ],
  "scene": 0,
  "scenes": [
    {
      "name": "OSG_Scene",
      "nodes": [
        0
      ]
    }
  ],
  "textures": [
    {
      "sampler": 0,
      "source": 0
    },
    {
      "sampler": 0,
      "source": 1
    },
    {
      "sampler": 0,
      "source": 2
    },
    {
      "sampler": 0,
      "source": 3
    },
    {
      "sampler": 0,
      "source": 4
    },
    {
      "sampler": 0,
      "source": 5
    }
  ]
}

